{
  "$schema": "http://json-schema.org/draft-07/schema#",
  "$id": "fif-testsuite.json",
  "title": "FIF single test suite schema",
  "required": [
    "profiles"
  ],
  "properties": {
    "profiles": {
      "type": "object",
      "title": "A testsuite profile entry schema",
      "additionalProperties": { "type": "number" }
    },
    "description": { "type": "string" },
    "settings": { "$ref": "fif-settingshash.json" }
  },
  "additionalProperties": false
}
